<svg width="187" height="34" viewBox="0 0 187 34" fill="none" xmlns="http://www.w3.org/2000/svg">
<path d="M129.246 12.5786H127.284C127.088 12.5786 126.927 12.7405 126.927 12.9384V13.5682C126.927 13.6762 126.838 13.7481 126.749 13.7481C126.713 13.7481 126.66 13.7301 126.642 13.7121C125.75 12.8844 124.572 12.4166 123.359 12.3986C119.898 12.3986 117.115 15.2236 117.115 18.6963C117.115 22.1691 119.916 24.994 123.359 24.994C124.572 24.976 125.732 24.5082 126.642 23.6805C126.713 23.6085 126.82 23.6265 126.891 23.6985C126.927 23.7345 126.927 23.7705 126.927 23.8065V26.0736C126.945 26.4335 126.874 27.4951 126.356 28.0349C126.196 28.2149 125.892 28.4308 125.215 28.4308C121.914 28.4308 119.613 27.3512 118.828 26.9373C118.667 26.8474 118.471 26.9013 118.364 27.0453L117.276 28.7007C117.169 28.8626 117.204 29.0965 117.383 29.2045C117.383 29.2045 117.401 29.2045 117.401 29.2225C118.328 29.7443 121.147 31.1298 125.215 31.1298C126.481 31.1298 127.552 30.698 128.319 29.8703C129.639 28.4488 129.621 26.3615 129.603 25.9477V12.9384C129.603 12.7405 129.443 12.5786 129.246 12.5786ZM123.359 22.5469C121.397 22.5469 119.791 20.8016 119.791 18.6783C119.791 16.5551 121.397 14.8097 123.359 14.8097C125.322 14.8097 126.927 16.5371 126.927 18.6423V18.6963C126.927 20.8375 125.322 22.5469 123.359 22.5469Z" fill="#025652"/>
<path d="M186.513 18.5164C186.513 18.2285 186.531 17.9946 186.531 17.7786C186.531 17.0409 186.406 16.3212 186.12 15.6374C185.585 14.3419 184.55 13.3163 183.266 12.7765C182.606 12.5066 181.892 12.3626 181.179 12.3626C180.34 12.3446 179.519 12.5066 178.752 12.8484C178.074 13.1543 177.45 13.6042 176.968 14.18C176.469 14.7737 176.094 15.4575 175.862 16.1952C175.595 17.0049 175.47 17.8326 175.47 18.6783C175.47 19.506 175.577 20.3517 175.827 21.1434C176.041 21.8812 176.415 22.5649 176.897 23.1587C177.397 23.7345 178.003 24.1843 178.699 24.4902C179.502 24.8321 180.376 24.994 181.25 24.976C181.928 24.994 182.606 24.8681 183.266 24.6521C183.837 24.4542 184.354 24.1663 184.836 23.7885C185.264 23.4466 185.621 23.0147 185.906 22.5469C186.085 22.223 186.227 21.8812 186.334 21.5393C186.388 21.3414 186.281 21.1434 186.102 21.0894C186.067 21.0714 186.031 21.0714 185.995 21.0714H183.926C183.783 21.0714 183.676 21.1434 183.605 21.2694C183.444 21.6113 183.212 21.9171 182.909 22.1691C182.57 22.4929 181.999 22.6369 181.232 22.6369C180.75 22.6549 180.269 22.5649 179.823 22.385C179.466 22.241 179.145 22.0071 178.895 21.7192C178.645 21.4313 178.467 21.0894 178.36 20.7296C178.235 20.3337 178.164 19.9379 178.146 19.524H186.245C186.334 19.524 186.406 19.452 186.424 19.3801C186.477 19.0922 186.495 18.8043 186.513 18.5164ZM178.324 17.4368C178.217 17.4368 178.146 17.3648 178.146 17.2568C178.181 16.3752 178.467 15.6914 178.984 15.2236C179.573 14.7198 180.322 14.4499 181.089 14.4858C181.839 14.4499 182.57 14.7378 183.105 15.2596C183.587 15.7454 183.855 16.4111 183.89 17.2568C183.89 17.3648 183.819 17.4368 183.712 17.4368H178.324Z" fill="#025652"/>
<path d="M69.3752 21.935C69.1076 21.7011 69.0006 21.0173 69.0184 20.6575V6.92847C69.0184 6.73054 68.8579 6.5686 68.6616 6.5686H65.2007C65.0579 6.5686 64.9152 6.65857 64.8617 6.80252L60.0092 20.5855L55.1567 6.80252C55.1032 6.65857 54.9783 6.5686 54.8178 6.5686H51.3568C51.1606 6.5686 51 6.73054 51 6.92847V24.4001C51 24.598 51.1606 24.76 51.3568 24.76H53.3192C53.5154 24.76 53.676 24.598 53.676 24.4001V10.6351C53.676 10.5272 53.7474 10.4552 53.8544 10.4552C53.9258 10.4552 53.9971 10.5092 54.0328 10.5811L58.9388 24.5081C58.9923 24.652 59.1172 24.742 59.2778 24.742H60.7763C60.9191 24.742 61.0618 24.652 61.1153 24.5081L66.0035 10.5811C66.0391 10.4912 66.1462 10.4372 66.2354 10.4732C66.3067 10.4912 66.3603 10.5631 66.3603 10.6351V20.5495C66.3424 20.9274 66.3424 22.7987 67.6091 23.9503C68.2335 24.5081 69.0363 24.796 69.8569 24.778C69.9996 24.778 70.1423 24.778 70.3029 24.76C70.4991 24.742 70.6419 24.562 70.624 24.3641V24.3461L70.2851 22.3848C70.2494 22.2049 70.0888 22.079 69.9104 22.079C69.7142 22.0969 69.5358 22.043 69.3752 21.935Z" fill="#025652"/>
<path d="M163.035 21.9351C162.768 21.7012 162.661 21.0175 162.679 20.6576V12.9204C162.679 12.7225 162.518 12.5605 162.322 12.5605H160.359C160.163 12.5605 160.003 12.7225 160.003 12.9204V13.5502C160.003 13.6582 159.913 13.7301 159.824 13.7301C159.788 13.7301 159.735 13.7121 159.717 13.6941C158.825 12.8664 157.648 12.3986 156.435 12.3806C152.974 12.3806 150.19 15.2056 150.19 18.6783C150.19 22.1511 152.991 24.976 156.435 24.976C157.897 24.976 159.289 24.2383 160.306 23.0507C160.377 22.9788 160.484 22.9788 160.556 23.0327C160.573 23.0507 160.591 23.0687 160.591 23.0867C160.77 23.4106 161.002 23.6985 161.269 23.9324C161.894 24.4902 162.696 24.7781 163.517 24.7601C163.66 24.7601 163.802 24.7601 163.963 24.7421C164.159 24.7241 164.302 24.5442 164.284 24.3463V24.3283L163.945 22.367C163.909 22.187 163.749 22.0611 163.571 22.0611C163.356 22.0971 163.178 22.0431 163.035 21.9351ZM156.417 22.5469C154.454 22.5469 152.849 20.8016 152.849 18.6783C152.849 16.5551 154.454 14.8097 156.417 14.8097C158.379 14.8097 159.985 16.5551 159.985 18.6783C159.985 20.8016 158.397 22.5469 156.417 22.5469Z" fill="#025652"/>
<path d="M109.069 12.3806C105.626 12.3806 102.825 15.2056 102.825 18.6783C102.825 22.1511 105.626 24.976 109.069 24.976C112.512 24.976 115.313 22.1511 115.313 18.6783C115.313 15.2056 112.53 12.3806 109.069 12.3806ZM109.069 22.5469C107.107 22.5469 105.501 20.8016 105.501 18.6783C105.501 16.5551 107.107 14.8097 109.069 14.8097C111.032 14.8097 112.637 16.5551 112.637 18.6783C112.637 20.8016 111.05 22.5469 109.069 22.5469Z" fill="#025652"/>
<path d="M83.3796 12.5785H81.4172C81.221 12.5785 81.0604 12.7405 81.0604 12.9384V20.8735C81.0426 21.1794 80.9177 21.4673 80.7215 21.7012C80.2933 22.187 79.4548 22.277 78.8304 22.277C78.1347 22.277 77.207 22.1691 76.6896 21.6293C76.422 21.3594 76.2793 20.9815 76.2615 20.6036V16.789C76.2793 16.4112 76.2793 14.5398 75.0127 13.3883C74.5131 12.9384 73.6568 12.4526 72.3188 12.5965C72.1226 12.6145 71.9799 12.7945 71.9977 12.9924V13.0104L72.3367 14.9717C72.3723 15.1516 72.5329 15.2776 72.7113 15.2776C72.8897 15.2596 73.0681 15.2956 73.2287 15.4035C73.4963 15.6374 73.6033 16.3212 73.5855 16.6811V20.5137C73.5676 21.6113 73.9779 22.6729 74.7094 23.4646C75.6371 24.4722 77.0286 24.976 78.8126 24.976C79.4905 24.8861 80.1684 24.6881 80.775 24.3822C80.8642 24.3463 80.9712 24.3643 81.0069 24.4542C81.0247 24.4722 81.0247 24.5082 81.0247 24.5262V26.0736C81.0426 26.3435 80.9891 27.4411 80.4539 28.0349C80.2933 28.2149 79.99 28.4488 79.3121 28.4488C77.0464 28.4488 74.9948 27.4051 74.2634 26.9913C74.1028 26.9013 73.8887 26.9553 73.7995 27.0993L72.7113 28.7547C72.6043 28.9166 72.6399 29.1505 72.8183 29.2585C72.8183 29.2585 72.8362 29.2585 72.8362 29.2765C73.7282 29.7983 76.2971 31.1478 79.3121 31.1478C80.5787 31.1478 81.6491 30.7159 82.4163 29.8882C83.7364 28.4668 83.7186 26.3795 83.7007 26.1456V12.9384C83.7186 12.7405 83.558 12.5785 83.3796 12.5785Z" fill="#025652"/>
<path d="M140.254 9.01584C143.019 9.01584 145.124 10.6712 145.909 13.2443C145.945 13.3882 146.087 13.4962 146.248 13.4962H148.282C148.478 13.4962 148.638 13.3523 148.656 13.1543C148.656 13.1183 148.656 13.0824 148.638 13.0464C147.675 9.01584 144.446 6.29883 140.254 6.29883C135.134 6.29883 131.566 10.1314 131.566 15.6194C131.566 21.1074 135.134 24.94 140.254 24.94C143.911 24.94 146.837 22.8708 148.157 19.65C148.228 19.47 148.139 19.2541 147.96 19.1821C147.925 19.1641 147.871 19.1461 147.818 19.1461H145.623C145.499 19.1461 145.374 19.2181 145.32 19.3261C144.285 21.1254 142.484 22.223 140.236 22.223C137.471 22.223 134.224 20.4777 134.224 15.6014C134.224 10.7252 137.488 9.01584 140.254 9.01584Z" fill="#025652"/>
<path d="M92.5851 6.5686H86.4124C86.2162 6.5686 86.0556 6.73054 86.0556 6.92847V24.4001C86.0556 24.598 86.2162 24.76 86.4124 24.76H92.5851C97.5803 24.76 101.059 21.0173 101.059 15.6553C101.059 10.2932 97.5624 6.5686 92.5851 6.5686ZM92.5851 22.061H88.7316V9.26762H92.5851C96.8667 9.26762 98.3831 12.7224 98.3831 15.6733C98.3652 20.3696 95.2432 22.061 92.5851 22.061Z" fill="#025652"/>
<path d="M168.905 13.5682V13.0464C168.905 12.8484 168.744 12.6865 168.548 12.6865H166.585C166.389 12.6865 166.229 12.8484 166.229 13.0464V24.5082C166.229 24.7061 166.389 24.868 166.585 24.868H168.548C168.744 24.868 168.905 24.7061 168.905 24.5082V18.6783C168.905 16.5551 170.51 14.8097 172.473 14.8097C172.901 14.8097 173.329 14.8817 173.721 15.0436C173.9 15.1156 174.114 15.0256 174.185 14.8457C174.203 14.8097 174.221 14.7557 174.221 14.7018V12.9024C174.221 12.7225 174.114 12.5785 173.953 12.5425C173.472 12.4166 172.99 12.3626 172.491 12.3626C171.277 12.3806 170.1 12.8664 169.208 13.6941C169.137 13.7661 169.03 13.7481 168.958 13.6761C168.922 13.6401 168.905 13.6042 168.905 13.5682Z" fill="#025652"/>
<path d="M40.2172 13.9756C40.2172 13.6888 40.1817 13.3661 40.164 13.0613C40.1285 12.7745 40.1285 12.649 40.0752 12.3801C39.9865 11.8423 39.88 11.3224 39.7202 10.8025C39.5782 10.3005 39.3829 9.78065 39.1699 9.29662C38.7084 8.34649 38.1581 7.43221 37.5013 6.60756L37.3415 6.39243C37.2883 6.3028 37.2173 6.23109 37.164 6.15938L37.1108 6.08767C36.9687 5.9084 36.8267 5.74706 36.6847 5.58572C36.3652 5.22717 36.0457 4.88656 35.7084 4.5818C35.4066 4.29497 35.0694 4.00813 34.7498 3.73923L34.5368 3.57788C34.4658 3.5241 34.3771 3.45239 34.3061 3.39861C34.1463 3.29105 33.9865 3.16556 33.809 3.058C33.1522 2.62775 32.4599 2.25128 31.7499 1.94652L31.3238 1.76725C31.1641 1.69554 31.0043 1.64176 30.8268 1.58798C30.4895 1.46249 30.099 1.35492 29.7795 1.28322C29.4599 1.21151 29.1227 1.1398 28.7676 1.06809L28.2884 1.01431C28.1463 0.996382 27.9866 0.978455 27.8446 0.960528C27.2055 0.906747 26.5665 0.88882 25.9274 0.906747C25.6257 0.924674 25.3416 0.942601 25.0399 0.978455L24.8091 1.01431H24.6848C24.5428 1.03224 24.4186 1.05016 24.2943 1.08602C23.7618 1.17565 23.247 1.30114 22.7322 1.46249C22.5014 1.53419 22.2707 1.62383 22.0399 1.69554L21.7559 1.82103C21.6849 1.85688 21.6139 1.89274 21.5429 1.92859C21.1878 2.08993 20.8506 2.30506 20.531 2.53811H20.46C20.318 2.43055 20.176 2.34091 19.9985 2.23335C19.821 2.12579 19.6257 2.01823 19.4305 1.92859C19.3595 1.89274 19.2885 1.85688 19.2174 1.82103L18.9512 1.71347C18.4896 1.53419 17.9926 1.37285 17.5133 1.26529C17.2648 1.21151 16.9985 1.1398 16.6968 1.08602C16.5548 1.06809 16.395 1.03224 16.253 1.01431L15.969 0.978455C15.3654 0.906747 14.7264 0.88882 14.1228 0.906747C13.8033 0.906747 13.4838 0.924674 13.1643 0.960528C13.0045 0.978455 12.827 0.996382 12.6495 1.01431L12.2412 1.08602C11.5666 1.19358 10.8743 1.37285 10.2353 1.58798C10.04 1.64176 9.88027 1.71347 9.685 1.78517L9.29447 1.94652C8.9217 2.10786 8.56667 2.28713 8.24715 2.4664C7.89212 2.64567 7.55485 2.8608 7.25307 3.058C7.04006 3.18349 6.84479 3.3269 6.68503 3.45239L6.34776 3.70337L6.2945 3.75715C4.85665 4.92241 3.61406 6.32073 2.63774 7.89831C1.46615 9.67309 0.827105 11.7706 0.7561 13.9039C0.738349 14.4417 0.738349 14.9795 0.791603 15.5173C0.827105 16.0551 0.915862 16.575 1.02237 17.0949C1.12888 17.6327 1.27089 18.1526 1.46615 18.6546C1.46615 18.6725 1.4839 18.6904 1.4839 18.7263L1.50165 18.7621C1.51941 18.78 1.51941 18.8159 1.53716 18.8518C1.57266 18.9235 1.60816 18.9772 1.64366 19.049C1.69692 19.1565 1.76792 19.2641 1.82118 19.3537C1.96319 19.5868 2.12295 19.8019 2.31821 19.9812C2.51348 20.1784 2.72649 20.3218 2.95726 20.4473C3.15253 20.5369 3.38329 20.6265 3.59631 20.6624L3.68506 20.6803H4.00459C4.07559 20.6803 4.12885 20.6803 4.19985 20.6624H4.25311L4.30636 20.6445C4.37736 20.6265 4.44837 20.6086 4.51937 20.5907L4.64363 20.5369L4.69689 20.519C4.8034 20.4652 4.9099 20.4114 4.99866 20.3397L5.08742 20.2859C5.10517 20.268 5.12292 20.2501 5.12292 20.2501L5.15842 20.2142C5.19392 20.1784 5.22943 20.1604 5.26493 20.1246C5.30043 20.0708 5.35369 20.0349 5.38919 19.9991L5.5312 19.8019C5.58445 19.7302 5.63771 19.6405 5.67321 19.5509C5.69096 19.533 5.70871 19.4971 5.70871 19.4792L5.74421 19.3896C5.76197 19.3537 5.77972 19.2999 5.77972 19.2999C5.97498 18.798 6.06374 18.2422 6.02823 17.6865C6.02823 17.2204 5.99273 16.7543 5.93948 16.3061C5.88622 15.6428 5.83297 14.9974 5.88622 14.3521C5.95723 13.384 6.17025 12.4339 6.52527 11.5375C7.23532 9.69102 8.44241 8.11343 10.0223 6.94817C10.0223 6.94817 10.04 6.94817 10.0755 6.94817C10.1288 6.9661 10.182 7.00196 10.182 7.01988C10.2353 7.10952 10.1998 7.19915 10.1288 7.25293L10.111 7.27086C9.91577 7.39635 9.73826 7.55769 9.56074 7.70111C9.34773 7.89831 9.17021 8.05965 9.01045 8.221C7.5726 9.69102 6.63178 11.5375 6.2945 13.5812V13.635C6.27675 13.6888 6.27675 13.7605 6.259 13.8501C6.259 13.886 6.24125 13.9397 6.24125 13.9577L6.2235 14.0473C6.20575 14.1369 6.20575 14.2266 6.20575 14.3341C6.188 14.5851 6.17025 14.8182 6.17025 15.0691C6.17025 15.5711 6.2235 16.0551 6.259 16.5212C6.27675 16.6467 6.27675 16.7543 6.2945 16.8798C6.38326 17.8299 6.40101 19.031 5.77972 19.9632C5.47794 20.4473 4.99866 20.7879 4.44837 20.9313L4.02234 21.0568L4.1466 21.5229C4.1466 21.5587 4.16435 21.5946 4.16435 21.6125C4.2176 21.7918 4.27086 21.9711 4.34186 22.1503L4.41287 22.3296C4.44837 22.4192 4.50162 22.5089 4.53713 22.6164C4.64363 22.8316 4.76789 23.0288 4.89215 23.208C4.9099 23.2439 4.92765 23.2797 4.96316 23.2977V23.3335L5.06966 23.459C5.14067 23.5487 5.22943 23.6383 5.30043 23.7279C5.38919 23.8355 5.4957 23.9251 5.6022 24.0148C5.61996 24.0327 5.63771 24.0506 5.67321 24.0685C5.69096 24.0865 5.70871 24.0865 5.70871 24.1044C5.74421 24.1402 5.79747 24.1761 5.81522 24.194C6.04599 24.3554 6.2945 24.4988 6.54302 24.6064L6.63178 24.6422H6.66728L6.70278 24.6601C6.77379 24.6781 6.84479 24.7139 6.89805 24.7318C7.05781 24.7856 7.19982 24.8215 7.35958 24.8573C7.43059 24.8753 7.51934 24.8932 7.59035 24.8932L8.37141 25.0187L8.06963 24.2837C7.85662 23.7996 7.67911 23.2977 7.5371 22.7957C7.51934 22.7419 7.53709 22.6882 7.55485 22.6702C7.5726 22.6523 7.59035 22.6164 7.66135 22.5985C7.71461 22.5806 7.76786 22.5985 7.78561 22.6164C7.80336 22.6344 7.83887 22.6523 7.85662 22.7061L7.90987 22.8674C7.99863 23.1184 8.06963 23.3873 8.17614 23.6383C8.21164 23.7638 8.2649 23.8713 8.3004 23.9789L8.3359 24.0865C8.35365 24.1223 8.37141 24.1582 8.38916 24.212L8.42466 24.2837C8.56667 24.6243 8.69093 24.9111 8.83294 25.1621C9.15246 25.8433 9.54299 26.4887 9.96902 27.1161L9.98677 27.1341C10.04 27.2058 10.0933 27.2775 10.1465 27.3492L10.253 27.4747C10.3773 27.636 10.5016 27.7974 10.6436 27.9408C10.9098 28.2276 11.1939 28.5145 11.5134 28.7654L11.6909 28.8909C11.7619 28.9447 11.8329 28.9985 11.9217 29.0523L11.9394 29.0702C12.0992 29.1778 12.2767 29.2674 12.4365 29.357C12.4897 29.3929 12.543 29.4108 12.5962 29.4287L12.898 29.5542C13.0932 29.6259 13.2885 29.6797 13.5015 29.7156L13.6435 29.7514H13.7855C13.8033 29.7514 13.8211 29.7514 13.8388 29.7514C13.8921 29.7514 13.9453 29.7693 13.9986 29.7693C14.0873 29.7693 14.1761 29.7693 14.2648 29.7693C14.4068 29.7693 14.5666 29.7694 14.7264 29.7514L14.9039 29.7335H14.9749C15.0814 29.7156 15.1879 29.6976 15.2944 29.6797C15.5252 29.6259 15.7382 29.5722 15.9512 29.4825L16.04 29.4467H16.0755L16.1642 29.4108C16.253 29.357 16.3595 29.3212 16.4482 29.2674C16.6258 29.1778 16.8033 29.0702 16.9808 28.9447L17.176 28.8013C17.2471 28.7475 17.3181 28.6937 17.3891 28.6399C17.5311 28.5145 17.6553 28.389 17.7796 28.2635L17.8151 28.2276C17.8683 28.1738 17.9216 28.1201 17.9926 28.0484H18.0104L18.2056 27.7974L18.2234 27.7794L18.2944 27.6898C18.2944 27.6719 18.3121 27.6719 18.3121 27.654C18.3654 27.5822 18.4186 27.5105 18.4719 27.4388C18.6672 27.152 18.8447 26.8472 19.0044 26.5425C19.0932 26.3811 19.1642 26.2198 19.2174 26.0943C19.253 26.0226 19.2885 25.9509 19.3062 25.8792L19.3595 25.7178V25.6999C19.4482 25.4848 19.5192 25.2876 19.5725 25.1083C19.608 24.9828 19.6435 24.8753 19.679 24.7498L19.7322 24.5346L19.608 24.3554C19.1464 23.71 18.6849 23.0467 18.2589 22.3834C17.8683 21.7918 17.4956 21.1644 17.4068 20.4652C17.3358 19.9095 17.5488 19.3537 17.9926 18.9772C18.4186 18.6187 19.0044 18.5111 19.5192 18.6725C19.75 18.7621 19.9453 18.8876 20.1228 19.049L20.4423 19.3537L20.7441 19.049C20.9571 18.8338 21.2233 18.6904 21.5074 18.6366C22.0577 18.5111 22.6079 18.6725 23.0162 19.0669C23.4245 19.5151 23.5665 20.1425 23.4068 20.7341C23.2647 21.3436 22.892 21.9173 22.5369 22.4551L22.4482 22.5806C22.0577 23.1543 21.6671 23.7279 21.2766 24.3016L21.1523 24.4809L21.2056 24.696C21.2588 24.8753 21.3299 25.1262 21.4186 25.3772C21.4719 25.5027 21.5074 25.6282 21.5606 25.7537L21.6849 26.0226C21.8269 26.3274 21.9689 26.6142 22.1464 26.901C22.2529 27.0624 22.3417 27.2237 22.4304 27.3492C22.4837 27.4209 22.5369 27.5105 22.5902 27.5822L22.6967 27.7077C22.9452 28.0125 23.2115 28.2993 23.5133 28.5503L23.6375 28.6579L23.886 28.8371C24.0636 28.9626 24.2411 29.0702 24.4363 29.1778C24.5251 29.2315 24.6138 29.2674 24.7204 29.3212L24.8269 29.357H24.8446C24.8801 29.375 24.9156 29.3929 24.9334 29.3929C25.1464 29.4646 25.3594 29.5363 25.5724 29.5901C25.6967 29.6259 25.8209 29.6439 25.9452 29.6618H26.0162C26.0339 29.6618 26.0339 29.6618 26.0517 29.6618C26.105 29.6618 26.1405 29.6797 26.1937 29.6797C26.4245 29.6976 26.6552 29.6976 26.8683 29.6976C26.9038 29.6976 26.9393 29.6976 26.9748 29.6976H27.0813L27.099 29.3212L27.1523 29.6797C27.17 29.6797 27.1878 29.6797 27.1878 29.6797L27.4008 29.6439C27.6138 29.608 27.8091 29.5542 28.0043 29.4825L28.2351 29.3929C28.3061 29.357 28.3771 29.3212 28.4481 29.2853C28.6256 29.1957 28.8031 29.0881 28.9984 28.9806L29.2469 28.8192L29.3712 28.7117C29.5132 28.6041 29.673 28.4607 29.8327 28.3173C30.1167 28.0484 30.383 27.7436 30.6315 27.4388L30.7558 27.2775C30.809 27.2058 30.8623 27.1341 30.9156 27.0444C31.0398 26.8831 31.1463 26.7217 31.2528 26.5425C31.6434 25.933 31.9806 25.3055 32.2647 24.6422C32.3179 24.5346 32.3534 24.4271 32.4067 24.3195L32.5664 23.943C32.6552 23.6921 32.7439 23.4769 32.8149 23.2797C32.8859 23.0825 32.957 22.8854 33.0102 22.6702C33.028 22.6164 33.0635 22.5806 33.0812 22.5806C33.099 22.5627 33.1522 22.5447 33.2055 22.5627C33.2942 22.5806 33.3475 22.6702 33.312 22.7599L33.2942 22.8136C33.17 23.226 33.0102 23.6562 32.8504 24.0506L32.8149 24.1223C32.7972 24.1761 32.7794 24.212 32.7617 24.2657L32.5309 24.8753H33.1877L33.383 24.8573C33.4717 24.8394 33.5605 24.8215 33.6493 24.8035C33.8268 24.7677 33.9865 24.7139 34.1463 24.6601C34.164 24.6601 34.235 24.6243 34.2705 24.6064L34.3061 24.5884L34.1995 24.2657L34.3416 24.5705L34.5013 24.4988C34.5368 24.4809 34.5546 24.4629 34.5901 24.445L34.7321 24.3733C34.7853 24.3374 34.8386 24.3016 34.8918 24.2657C34.9451 24.2299 34.9984 24.194 35.0694 24.1582L35.1581 24.0865C35.3534 23.9251 35.5309 23.7638 35.7084 23.5666L35.8327 23.4232L35.8682 23.3694C35.9392 23.2797 36.0102 23.1722 36.0634 23.0825C36.1877 22.8854 36.2942 22.6882 36.4007 22.4551L36.4717 22.3117L36.4895 22.2938C36.525 22.2041 36.5605 22.1324 36.5782 22.0428C36.6315 21.8994 36.6847 21.738 36.738 21.5408L36.8622 21.0926L36.4185 20.9851C36.3474 20.9672 36.2587 20.9492 36.1877 20.9134C35.4066 20.5907 34.8208 19.8198 34.6256 18.8159C34.4836 18.063 34.5546 17.328 34.6256 16.5212C34.6611 16.0731 34.7143 15.6249 34.7143 15.1767C34.7143 14.9078 34.7143 14.621 34.6788 14.3341C34.6611 14.2266 34.6611 14.119 34.6433 14.0294V13.9935C34.6433 13.9756 34.6433 13.9577 34.6433 13.9397L34.6078 13.7425C34.5191 13.2227 34.4126 12.7207 34.2528 12.2367C34.1108 11.7526 33.9155 11.2686 33.6848 10.8204C33.454 10.3543 33.1877 9.90614 32.8859 9.49382C32.7439 9.27869 32.5842 9.0815 32.4244 8.8843C32.2647 8.70503 32.1226 8.54368 31.9629 8.36441C31.6079 8.00587 31.2173 7.66526 30.809 7.3605L30.7735 7.34257C30.7025 7.28879 30.667 7.19915 30.7203 7.12744C30.7558 7.07366 30.7913 7.05574 30.809 7.05574C30.8268 7.05574 30.8623 7.03781 30.9156 7.05574C32.8682 8.47198 34.235 10.5694 34.7676 12.9358C34.9983 13.9039 35.0694 14.8899 34.9983 15.8759C34.9806 16.091 34.9628 16.2882 34.9451 16.5033C34.9096 16.8977 34.8741 17.31 34.8563 17.7224C34.8563 17.9554 34.8563 18.1347 34.8741 18.3139C34.8741 18.3498 34.8741 18.3677 34.8918 18.4036C34.8918 18.4215 34.8918 18.4574 34.8918 18.4753L34.9096 18.6725C34.9628 18.9055 35.0161 19.1386 35.1049 19.3716L35.2469 19.6764C35.3001 19.784 35.3711 19.8915 35.4244 19.9632L35.5309 20.1067C35.5664 20.1425 35.6019 20.1963 35.6374 20.2321C35.6551 20.2501 35.6907 20.2859 35.7084 20.3039C35.7262 20.3218 35.7439 20.3397 35.7617 20.3397L35.8327 20.3935C35.9569 20.4831 36.0812 20.5548 36.2054 20.6086L36.2587 20.6265H36.2942C36.3119 20.6265 36.3474 20.6445 36.3474 20.6445L36.383 20.6624C36.4362 20.6803 36.4895 20.6803 36.525 20.6982L36.6315 20.7341H36.7025C36.7557 20.7341 36.809 20.7341 36.88 20.7341H37.0397C37.0575 20.7341 37.093 20.7341 37.1285 20.7162C37.1285 20.7162 37.1463 20.7162 37.164 20.7162H37.2173C37.6965 20.6265 38.1226 20.4114 38.4776 20.0887C38.6906 19.8915 38.8859 19.6585 39.0456 19.4075C39.1877 19.1924 39.3119 18.9593 39.4007 18.7083L39.5072 18.4215C39.5249 18.3857 39.5249 18.3677 39.5427 18.3319C39.5782 18.2064 39.6137 18.0809 39.6492 17.9554C39.7202 17.7403 39.7734 17.4893 39.8267 17.2025C39.8977 16.8977 39.951 16.6109 39.9865 16.3061C40.0042 16.2344 40.0042 16.1985 40.022 16.0551C40.0397 15.9117 40.0575 15.7683 40.0575 15.6249C40.2172 15.0512 40.235 14.5134 40.2172 13.9756Z" fill="white"/>
<path d="M19.75 24.014C18.0991 22.3288 17.4601 19.8907 18.0459 17.5961C18.5962 15.5882 20.0695 13.8672 20.2293 11.7877C20.4068 9.58266 18.9334 7.41348 16.892 6.55298C14.8506 5.69248 12.4542 6.06895 10.6081 7.27006C8.76196 8.47118 7.48386 10.4432 6.80932 12.5406C6.13477 14.6381 6.02826 16.9148 6.20577 19.1199C6.29453 20.2851 2.85078 20.1596 5.15845 23.7809C5.92175 24.982 8.21167 25.0179 9.08148 26.2011C10.6613 28.3165 12.8448 30.1271 15.4364 29.7148C18.0281 29.3025 20.2293 26.6672 19.7322 24.0857" fill="#FDC282"/>
<path d="M14.9571 29.9837C17.4068 29.9299 19.4305 28.0476 19.6967 25.5916C19.7322 25.2689 19.821 24.8386 20.1405 24.7849C20.4068 24.749 20.6021 25.0358 20.7263 25.2868C21.0103 25.9322 21.1878 26.6493 21.6139 27.205C22.0044 27.707 22.5547 28.0476 23.0872 28.3882L25.0399 29.5893C25.2884 29.7507 25.5902 30.0016 25.5014 30.2885C25.4304 30.4498 25.2884 30.5574 25.1286 30.6291C23.4955 31.4896 21.7559 32.2963 19.9097 32.368C19.1464 32.4039 18.3831 32.2963 17.6553 32.0632C16.679 31.7406 15.8092 31.1848 15.1169 30.414" fill="#CADDFD"/>
<path d="M2.06971 19.3536C2.37148 20.3217 3.72058 20.6444 4.60815 20.1603C5.49571 19.6763 5.9395 18.6186 6.08151 17.6147C6.22352 16.6108 6.09926 15.571 6.15251 14.5492C6.31227 11.878 7.59037 9.42201 9.68502 7.79065C10.5548 7.12734 11.6554 6.46404 11.7974 5.35256C11.9394 4.24108 11.0164 3.27302 9.96904 3.03997C8.92172 2.80692 7.82113 3.1296 6.86256 3.59571C1.14664 6.37441 -1.26753 13.3301 1.50167 19.1206C1.50167 19.1206 1.50167 19.1385 1.51942 19.1385" fill="#E8CFB4"/>
<path d="M38.7439 19.3536C38.4421 20.3217 37.093 20.6444 36.2055 20.1603C35.3179 19.6763 34.8564 18.6186 34.7321 17.6147C34.6078 16.6108 34.7143 15.571 34.6611 14.5492C34.5013 11.878 33.2232 9.42201 31.1286 7.79065C30.2588 7.10942 29.1582 6.46404 29.0162 5.35256C28.8742 4.24108 29.7972 3.27302 30.8446 3.03997C31.8919 2.80692 32.9925 3.1296 33.951 3.59571C39.6847 6.39233 42.0811 13.348 39.3119 19.1385C39.3119 19.1385 39.3119 19.1564 39.2942 19.1564" fill="#E8CFB4"/>
<path d="M18.9512 25.6459C18.9512 25.6278 18.9689 25.6098 18.9867 25.5917V25.5736C18.9512 25.5917 18.9512 25.6098 18.9512 25.6459Z" fill="#025652"/>
<path d="M14.9039 9.99502C13.4838 9.94123 12.4897 10.9095 11.2649 12.2902C11.1229 12.4516 11.1584 12.7027 11.3181 12.8282C11.4601 12.9537 11.6909 12.9537 11.8329 12.8103C12.827 11.7882 13.8566 11.2861 14.8684 11.3219C16.253 11.3757 17.3358 12.3978 17.7441 12.8461C17.8506 12.9716 18.0281 12.9896 18.1701 12.882C18.2766 12.7923 18.3121 12.6309 18.2411 12.5054C17.8861 11.8599 16.892 10.0667 14.9039 9.99502Z" fill="#025652"/>
<path d="M40.9983 14.1362C40.9806 11.8773 40.3415 9.65439 39.1877 7.71826C38.1759 6.05105 36.8978 4.5631 35.4066 3.3082C33.0102 1.35415 30.0458 0.242671 26.9748 0.117182C25.7499 0.0813276 24.5073 0.206817 23.318 0.49365C22.3772 0.708775 21.4719 1.06732 20.6198 1.55135C20.5843 1.5872 20.5311 1.60513 20.4955 1.64098C19.8388 1.22866 19.1287 0.9239 18.3831 0.708775C17.2648 0.368161 16.0932 0.170963 14.9216 0.153036C11.9749 0.0275463 9.06371 0.870119 6.63178 2.53734C5.08741 3.61296 3.73831 4.93957 2.63773 6.4813C1.99869 7.32387 1.46615 8.23815 1.04012 9.20621C0.596333 10.246 0.294561 11.3575 0.134799 12.4689C-0.0249628 13.5804 -0.0427141 14.7098 0.0815451 15.8213C0.205804 16.9686 0.41882 18.1518 0.898105 19.2095C1.35964 20.2314 2.2117 21.1277 3.33003 21.3787H3.36554C3.77382 22.9563 4.55487 24.4622 6.08149 25.1792C6.79154 25.5019 7.55485 25.6812 8.3359 25.6812L8.49566 25.986C9.41873 27.7249 10.7323 29.4459 12.5962 30.1809C13.1465 30.396 13.7145 30.5036 14.3003 30.5036C15.8092 32.2963 18.0636 33.1209 20.3358 33.1926C20.3535 33.1926 20.389 33.1926 20.4068 33.1926H20.5311H20.6553C20.6731 33.1926 20.7086 33.1926 20.7263 33.1926C23.0162 33.1209 25.2707 32.2963 26.7795 30.5036C27.1345 30.5036 27.4718 30.4677 27.8268 30.3781C29.815 29.9299 31.2706 28.2448 32.2647 26.5596C32.4422 26.2728 32.5842 25.986 32.744 25.6812C34.022 25.6633 35.2824 25.251 36.2055 24.3008C36.8623 23.6017 37.3415 22.7591 37.5901 21.8448C37.6433 21.6835 37.6788 21.5221 37.7143 21.3608C38.3001 21.2174 38.8327 20.9305 39.2764 20.5003C40.093 19.7115 40.4835 18.5821 40.732 17.5065C40.8918 16.4129 41.0161 15.2656 40.9983 14.1362ZM24.9511 30.5753L24.9334 30.5932L24.8624 30.647C24.4541 30.9518 24.0103 31.2027 23.5488 31.3999L23.46 31.4358C23.389 31.4716 23.318 31.4896 23.247 31.5254C23.1227 31.5613 22.9985 31.6151 22.8742 31.6509C22.608 31.7226 22.3417 31.7943 22.0754 31.8481C21.8269 31.9019 21.5606 31.9378 21.3121 31.9557C21.0458 31.9736 20.7796 31.9915 20.5133 31.9915C20.247 31.9915 19.9808 31.9736 19.7145 31.9557C19.4482 31.9378 19.1997 31.9019 18.9512 31.8481C18.7027 31.7943 18.4364 31.7406 18.1879 31.6688C18.0636 31.633 17.9216 31.5792 17.7974 31.5434L17.6021 31.4716L17.4778 31.4179C17.0163 31.2207 16.5725 30.9518 16.1642 30.647L16.0932 30.5932L16.0755 30.5753L15.9512 30.4677C15.898 30.414 15.8447 30.3781 15.7915 30.3243C16.821 30.0375 17.7441 29.4638 18.4719 28.693C19.4482 27.5994 20.1583 26.2907 20.5311 24.8745C20.6198 25.2151 20.7441 25.5557 20.8683 25.8784C21.1878 26.703 21.6316 27.4739 22.1642 28.191C22.9275 29.2487 24.0103 30.0016 25.2707 30.3243C25.2174 30.3781 25.1641 30.414 25.1109 30.4677C25.0576 30.5215 24.9866 30.5394 24.9511 30.5753ZM18.2411 20.4106C18.2411 20.321 18.2411 20.2493 18.2411 20.1597C18.2411 20.1059 18.2589 20.0342 18.2766 19.9804C18.2766 19.9445 18.2944 19.9266 18.3121 19.8908C18.3299 19.8549 18.3654 19.8011 18.3654 19.8011L18.4186 19.7294L18.4541 19.6936C18.4897 19.6398 18.5429 19.6039 18.5962 19.5501L18.6672 19.5143C18.7027 19.4964 18.7382 19.4784 18.7737 19.4605L18.8269 19.4246L18.9512 19.3888L19.0577 19.3709H19.182L19.253 19.3888C19.324 19.4067 19.3772 19.4246 19.4482 19.4426H19.466C19.5192 19.4784 19.5725 19.4964 19.608 19.5322L19.6435 19.5681L19.7145 19.6218C19.7322 19.6398 19.821 19.7473 19.821 19.7473C19.8565 19.8011 19.892 19.8549 19.9098 19.9087C19.9275 19.9266 19.9275 19.9445 19.9453 19.9625C19.963 20.0162 19.9808 20.0521 19.9808 20.1059C19.9985 20.1955 20.0518 20.2851 20.105 20.3389C20.176 20.4286 20.2825 20.5003 20.4068 20.5361H20.46H20.5133C20.6731 20.5541 20.8151 20.5003 20.9393 20.4106C21.0458 20.3389 21.1168 20.2314 21.1346 20.1059C21.1346 20.07 21.1523 20.0342 21.1701 19.9983C21.1701 19.9983 21.2056 19.9266 21.2056 19.9087C21.2056 19.8908 21.2234 19.8728 21.2411 19.8549C21.2589 19.837 21.2766 19.7832 21.2944 19.7653C21.2944 19.7653 21.2944 19.7653 21.2944 19.7473C21.3299 19.7115 21.3654 19.6756 21.4009 19.6398L21.4719 19.586L21.5251 19.5501C21.5606 19.5143 21.6139 19.4964 21.6494 19.4784L21.6849 19.4605C21.7559 19.4426 21.8269 19.4246 21.8802 19.4067C21.7736 19.4246 21.9689 19.4067 22.0044 19.4067H22.0399C22.0932 19.4067 22.1287 19.4246 22.1819 19.4426C22.2174 19.4426 22.2352 19.4605 22.2707 19.4784L22.3062 19.4964C22.3417 19.5143 22.3772 19.5322 22.4127 19.5501C22.4127 19.5501 22.5014 19.6218 22.5014 19.6039C22.5902 19.6756 22.6612 19.7653 22.7322 19.8728C22.7855 19.9804 22.821 20.088 22.821 20.2134C22.8387 20.3927 22.8032 20.572 22.75 20.7333C22.6257 21.0919 22.4482 21.4325 22.2352 21.7552C21.9867 22.1496 21.7204 22.544 21.4541 22.9204C21.1879 23.2969 20.9393 23.6554 20.6908 24.0319C20.6376 24.1036 20.5843 24.1933 20.5488 24.265C20.5133 24.1753 20.46 24.1036 20.4068 24.0319C19.8743 23.279 19.3595 22.526 18.8624 21.7552C18.6317 21.4325 18.4719 21.0739 18.3476 20.6975C18.3299 20.6616 18.3299 20.6078 18.3121 20.5541C18.2589 20.5003 18.2411 20.4286 18.2411 20.4106ZM19.3772 19.4246C19.3595 19.4067 19.324 19.3888 19.3772 19.4246V19.4246ZM39.738 15.5524C39.7202 15.6958 39.7202 15.8213 39.7025 15.9647C39.6847 16.1081 39.6847 16.144 39.667 16.1978C39.6315 16.4846 39.5782 16.7714 39.5072 17.0583C39.4539 17.2913 39.4007 17.5423 39.3297 17.7754C39.2942 17.9008 39.2587 18.0084 39.2232 18.1339C39.2054 18.1877 39.1877 18.2415 39.1699 18.2952L39.1167 18.4207C39.0989 18.4387 39.0989 18.4566 39.0989 18.4745C39.0102 18.6896 38.9037 18.9048 38.7794 19.102C38.6551 19.3171 38.4954 19.5143 38.3001 19.6756C38.0161 19.9445 37.6433 20.1238 37.2528 20.1955C37.235 20.1955 37.1463 20.2134 37.1463 20.2134C37.093 20.2134 37.022 20.2134 36.9688 20.2134C36.9155 20.2134 36.8623 20.2134 36.8268 20.2134H36.809L36.7735 20.1955C36.7202 20.1776 36.667 20.1597 36.596 20.1597C36.596 20.1597 36.5072 20.1238 36.4895 20.1238C36.383 20.07 36.2765 20.0162 36.1877 19.9445L36.17 19.9266C36.1345 19.8908 36.0812 19.8549 36.0457 19.8011C36.0102 19.7473 35.9747 19.7115 35.9392 19.6756L35.9214 19.6398L35.9037 19.6039C35.8504 19.5143 35.7794 19.4246 35.7439 19.335L35.6729 19.2095L35.6374 19.1378C35.6374 19.1378 35.6197 19.1199 35.6197 19.084C35.5487 18.8868 35.4777 18.6717 35.4422 18.4566C35.4422 18.4566 35.4244 18.367 35.4244 18.349C35.4244 18.2773 35.4066 18.2235 35.4066 18.1518C35.3889 17.9726 35.3889 17.7933 35.3889 17.5961C35.4066 16.9866 35.4777 16.395 35.5309 15.7855C35.6019 14.7636 35.5309 13.7238 35.2824 12.7199C34.7321 10.2639 33.2942 8.05888 31.2351 6.57093C30.9511 6.40959 30.5783 6.51715 30.4185 6.80398C30.2588 7.09082 30.3475 7.44936 30.6315 7.62863C31.0221 7.91546 31.3949 8.23815 31.7321 8.57876C31.8741 8.74011 32.0339 8.90145 32.1759 9.08072C32.3357 9.25999 32.4777 9.45719 32.6197 9.65439C32.9037 10.0667 33.17 10.479 33.383 10.9272C33.596 11.3575 33.7913 11.8056 33.9333 12.2717C34.0931 12.7378 34.1996 13.2398 34.2706 13.7238L34.2883 13.8673C34.2883 13.8852 34.3061 13.9927 34.3061 13.9927C34.3238 14.1003 34.3238 14.2079 34.3416 14.2975C34.3593 14.5664 34.3771 14.8353 34.3771 15.1042C34.3593 16.3591 34.0575 17.5961 34.3061 18.8331C34.5013 19.8728 35.1404 20.8588 36.1345 21.2711C36.2232 21.307 36.312 21.3428 36.4185 21.3608C36.383 21.5221 36.3297 21.6835 36.2765 21.8269C36.241 21.9165 36.2232 21.9882 36.1877 22.0779L36.1167 22.2213C36.0279 22.4185 35.9214 22.5977 35.8149 22.7949C35.7617 22.8846 35.7084 22.9742 35.6374 23.0459L35.6019 23.0818L35.4777 23.2252C35.3356 23.3865 35.1581 23.5479 34.9984 23.6913L34.9451 23.7451C34.8919 23.7809 34.8386 23.8168 34.7854 23.8526C34.6788 23.9243 34.5546 23.9961 34.4303 24.0498L34.2706 24.1215C34.3061 24.1036 34.1641 24.1753 34.1108 24.1753C33.9688 24.2291 33.809 24.2829 33.6493 24.3187C33.5605 24.3367 33.4895 24.3546 33.4008 24.3725L33.2765 24.3905H33.2587C33.2765 24.3187 33.312 24.247 33.3475 24.1933C33.525 23.763 33.6848 23.3507 33.809 22.9025L33.8268 22.8487C33.9155 22.526 33.7203 22.1854 33.4008 22.0958C33.0812 22.0061 32.744 22.2033 32.6552 22.526C32.6019 22.7232 32.5309 22.9204 32.4599 23.1176C32.3889 23.3328 32.3002 23.5479 32.2114 23.7809L32.1404 23.9602L32.1049 24.0319C32.0339 24.1753 31.9806 24.3187 31.9096 24.4622C31.6256 25.1075 31.2883 25.7171 30.9156 26.3087C30.8091 26.47 30.7026 26.6313 30.596 26.7748C30.5428 26.8465 30.4895 26.9182 30.4363 26.9899L30.4008 27.0257L30.312 27.1333C30.0813 27.4381 29.815 27.707 29.5487 27.9759C29.4067 28.1014 29.2647 28.2268 29.1227 28.3523L29.0162 28.442L28.7854 28.6033C28.6256 28.7109 28.4659 28.8005 28.2884 28.8901C28.2174 28.926 28.1641 28.9619 28.0931 28.9798L28.0221 28.9977L27.8801 29.0515C27.7026 29.1053 27.5251 29.1591 27.3298 29.1949L27.2055 29.2128C27.1878 29.2128 27.028 29.2308 27.1168 29.2308C27.2055 29.2308 27.0635 29.2308 27.028 29.2308C26.9925 29.2308 26.9215 29.2487 26.8683 29.2487C26.6553 29.2666 26.4422 29.2487 26.2292 29.2308C26.176 29.2308 26.1227 29.2128 26.0517 29.2128H26.0162C25.9097 29.1949 25.7854 29.177 25.6789 29.1411C25.4837 29.0873 25.2884 29.0336 25.0931 28.9619C25.0399 28.9439 25.0044 28.926 24.9511 28.9081L24.9334 28.8901H24.9156C24.8269 28.8543 24.7381 28.8005 24.6494 28.7647C24.4718 28.675 24.3121 28.5675 24.1523 28.4599L24.0458 28.3882L23.9748 28.3344L23.9216 28.2986L23.7973 28.191C23.531 27.9579 23.2648 27.689 23.0517 27.4022L22.9807 27.3126L22.963 27.2767C22.9097 27.205 22.8565 27.1333 22.8032 27.0616C22.6967 26.9182 22.608 26.7748 22.5192 26.6313C22.3594 26.3624 22.2174 26.0756 22.0754 25.8067L21.9867 25.6274L21.9512 25.5557C21.8979 25.4302 21.8624 25.3227 21.8091 25.1972C21.7381 24.982 21.6671 24.7669 21.5961 24.5339C22.0044 23.9602 22.3949 23.3865 22.7855 22.8129C23.1937 22.2033 23.6375 21.558 23.815 20.823C24.0103 20.088 23.8328 19.2992 23.318 18.7434C22.821 18.2415 22.0932 18.0263 21.4009 18.1877C21.0281 18.2773 20.6908 18.4566 20.4245 18.7255C20.2115 18.5104 19.9453 18.349 19.679 18.2415C19.0044 18.0084 18.2589 18.1518 17.7086 18.6179C17.1583 19.0661 16.8743 19.7832 16.963 20.5003C17.0518 21.2891 17.4601 21.9524 17.8861 22.5977C18.3299 23.279 18.7737 23.9423 19.253 24.5876C19.2175 24.6952 19.182 24.8207 19.1464 24.9283C19.0754 25.1434 19.0044 25.3585 18.9157 25.5736V25.5916V25.6095C18.9157 25.6274 18.8979 25.6453 18.8979 25.6453V25.6633C18.8624 25.735 18.8447 25.8067 18.8092 25.8605C18.7382 26.0039 18.6672 26.1473 18.5962 26.2728C18.4364 26.5596 18.2766 26.8465 18.0814 27.1154C18.0281 27.1871 17.9749 27.2588 17.9216 27.3305C17.9216 27.3484 17.9039 27.3484 17.9039 27.3484L17.9216 27.3305C17.9216 27.3484 17.9039 27.3484 17.9039 27.3663C17.8861 27.3843 17.8861 27.3843 17.8861 27.3843L17.8329 27.456C17.7263 27.5994 17.6021 27.7249 17.4778 27.8504C17.3536 27.9759 17.2116 28.1193 17.0695 28.2448C17.0163 28.2986 16.963 28.3344 16.892 28.3882L16.8388 28.424L16.6968 28.5137C16.537 28.6212 16.3772 28.7109 16.2175 28.8005C16.1287 28.8543 16.04 28.8901 15.9512 28.926H15.9335L15.7737 28.9977C15.5784 29.0694 15.3832 29.1232 15.1702 29.177C15.0636 29.1949 14.9749 29.2128 14.8684 29.2308H14.8329L14.6376 29.2487C14.4246 29.2666 14.1938 29.2666 13.9808 29.2666C13.9098 29.2666 13.8388 29.2487 13.7678 29.2487H13.8388H13.8033H13.8388H13.7856L13.6435 29.2308C13.466 29.1949 13.2708 29.1411 13.0933 29.0873L12.9867 29.0515L12.9157 29.0336L12.827 28.9977C12.7737 28.9798 12.7382 28.9619 12.685 28.926C12.5252 28.8364 12.3655 28.7467 12.2057 28.6571C12.1347 28.6033 12.0637 28.5675 11.9927 28.5137L11.8862 28.424L11.8684 28.4061L11.8507 28.3882C11.5666 28.1551 11.2826 27.8862 11.0341 27.6173C10.9098 27.4739 10.7856 27.3305 10.6613 27.1691L10.5903 27.0795L10.5726 27.0616C10.5193 26.9899 10.4661 26.9002 10.3951 26.8285C9.98677 26.2369 9.614 25.6095 9.29447 24.9462C9.15246 24.6594 9.0282 24.3725 8.90394 24.0857L8.86844 24.014C8.85069 23.9423 8.81519 23.8885 8.79744 23.8168C8.74418 23.6913 8.70868 23.5837 8.65543 23.4582C8.54892 23.1714 8.46016 22.9025 8.37141 22.6157C8.37141 22.5977 8.37141 22.5798 8.35365 22.5798C8.2649 22.2571 7.92762 22.0599 7.6081 22.1496C7.28858 22.2392 7.09331 22.5798 7.18207 22.9025C7.32408 23.4224 7.51934 23.9423 7.73236 24.4622C7.66135 24.4442 7.59035 24.4442 7.51934 24.4263C7.37733 24.3905 7.23532 24.3546 7.09331 24.3187C7.04006 24.3008 6.96905 24.2829 6.9158 24.265L6.80929 24.2291H6.79154C6.56077 24.1215 6.33001 23.9961 6.11699 23.8526C6.08149 23.8347 5.93948 23.6913 6.06374 23.8168C6.02823 23.7809 5.97498 23.7451 5.93948 23.7092C5.85072 23.6196 5.76196 23.5479 5.67321 23.4582C5.6022 23.3865 5.5312 23.2969 5.46019 23.2073L5.44244 23.1893C5.44244 23.1893 5.44244 23.1893 5.44244 23.1714C5.40694 23.1176 5.35368 23.0638 5.31818 23.0101C5.19392 22.8308 5.08741 22.6515 4.98091 22.4543C4.9454 22.3647 4.89215 22.2751 4.85665 22.2033C4.85665 22.1854 4.8389 22.1675 4.8389 22.1496L4.80339 22.042C4.73239 21.8807 4.67913 21.7193 4.64363 21.54C4.62588 21.5042 4.62588 21.4683 4.60813 21.4146C5.26493 21.2353 5.81522 20.823 6.18799 20.2493C6.84479 19.2633 6.8803 18.0263 6.77379 16.879C6.72053 16.2874 6.64953 15.6958 6.64953 15.1042C6.64953 14.8712 6.64953 14.6202 6.68503 14.3871C6.68503 14.2796 6.70278 14.1541 6.72053 14.0465C6.72053 14.0465 6.73829 13.9569 6.73829 13.939C6.73829 13.8673 6.75604 13.7955 6.77379 13.7238C7.07556 11.7877 7.98088 9.995 9.36548 8.59669C9.54299 8.41742 9.7205 8.25608 9.89802 8.09473C10.0578 7.95132 10.2353 7.8079 10.4128 7.68241C10.6968 7.50314 10.7856 7.1446 10.6258 6.83984C10.4838 6.57093 10.0755 6.42751 9.80926 6.60679C8.15839 7.8079 6.89805 9.47512 6.15249 11.3933C5.79747 12.3435 5.5667 13.3294 5.49569 14.3334C5.40694 15.4628 5.61995 16.5922 5.6377 17.7216C5.67321 18.2056 5.58445 18.6896 5.40694 19.1557C5.40694 19.1557 5.37143 19.2633 5.35368 19.2633C5.33593 19.2992 5.31818 19.335 5.30043 19.3709C5.24718 19.4784 5.17617 19.5681 5.12292 19.6756C5.10517 19.6936 5.10517 19.6936 5.10517 19.7115L5.08741 19.7473C5.05191 19.7832 5.01641 19.837 4.98091 19.8728C4.9454 19.9087 4.89215 19.9445 4.85665 19.9983L4.8389 20.0162L4.80339 20.0342C4.71464 20.088 4.62588 20.1417 4.53712 20.1955L4.43062 20.2314C4.37736 20.2493 4.32411 20.2672 4.2531 20.2672H4.2176C4.16435 20.2672 4.11109 20.2851 4.05784 20.2851C4.00458 20.2851 3.93358 20.2851 3.88032 20.2851H3.80932C3.79157 20.2851 3.77382 20.2672 3.75607 20.2672C3.57855 20.2314 3.40104 20.1776 3.22353 20.088C3.02826 19.9983 2.85075 19.8728 2.69099 19.7115C2.51347 19.5501 2.37146 19.3709 2.26496 19.1737C2.2117 19.084 2.15845 18.9765 2.10519 18.8868C2.06969 18.8331 2.05194 18.7613 2.01644 18.7076C1.98094 18.6538 1.98094 18.6179 1.96318 18.5821C1.92768 18.5104 1.92768 18.4924 1.94543 18.5462C1.76792 18.0622 1.62591 17.5602 1.5194 17.0583C1.41289 16.5563 1.34189 16.0544 1.30639 15.5345C1.27088 15.0146 1.25313 14.4947 1.27088 13.9748C1.34189 11.9132 1.94543 9.90537 3.06376 8.16644C3.95133 6.57093 5.15842 5.20847 6.56077 4.07907L6.57852 4.06114L6.59627 4.04321L6.72053 3.95358L6.93355 3.79223C7.11106 3.66674 7.28858 3.54125 7.48384 3.41576C7.80336 3.20064 8.12289 3.02137 8.46016 2.8421C8.79744 2.66283 9.13471 2.50148 9.48974 2.34014L9.59625 2.28636L9.84476 2.1788C10.0223 2.10709 10.182 2.05331 10.3596 1.99953C10.9986 1.7844 11.6731 1.60513 12.3477 1.49757L12.5962 1.47964L12.7382 1.46171C12.898 1.44379 13.0578 1.42586 13.2175 1.40793C13.5193 1.37208 13.8388 1.35415 14.1406 1.35415C14.7441 1.33622 15.3299 1.37208 15.9335 1.42586L16.1465 1.44379H16.182H16.1997C16.3417 1.46171 16.4838 1.47964 16.6258 1.51549C16.892 1.56928 17.1406 1.62306 17.4068 1.67684C17.8684 1.7844 18.3299 1.92782 18.7914 2.10709L18.9512 2.1788C19.0577 2.21465 19.1464 2.26843 19.2352 2.32221C19.4127 2.41185 19.5902 2.50148 19.75 2.60905C19.9098 2.71661 20.034 2.78832 20.176 2.89588C20.247 2.94966 20.3535 2.98551 20.4423 2.98551H20.5133C20.6021 2.98551 20.7086 2.94966 20.7796 2.89588C21.0813 2.68075 21.3831 2.48356 21.7204 2.34014C21.8091 2.28636 21.9157 2.2505 22.0044 2.19672H22.0222L22.1997 2.12501C22.4127 2.03538 22.6257 1.96367 22.8565 1.89196C23.3535 1.73062 23.8505 1.62306 24.3653 1.53342C24.5073 1.51549 24.6494 1.47964 24.7914 1.46171H24.8091H24.8269L25.0754 1.42586C25.3594 1.39 25.6434 1.37208 25.9275 1.35415C26.5487 1.3183 27.17 1.33622 27.7913 1.40793C27.9333 1.42586 28.0754 1.44379 28.2174 1.46171L28.3594 1.47964L28.6434 1.53342C28.9629 1.5872 29.2824 1.65891 29.602 1.73062C29.9215 1.80233 30.2943 1.92782 30.6315 2.03538C30.7913 2.08916 30.9511 2.14294 31.0931 2.19672L31.3416 2.30429L31.4481 2.34014L31.5014 2.35807C32.1937 2.66283 32.8682 3.02137 33.4895 3.43369C33.6493 3.54125 33.809 3.64882 33.9688 3.77431C34.0398 3.82809 34.1286 3.88187 34.1996 3.93565L34.3238 4.02529H34.3416L34.4126 4.07907C34.7321 4.33005 35.0516 4.61688 35.3534 4.88579C35.6907 5.19055 35.9924 5.53116 36.2942 5.87177C36.4362 6.03312 36.5782 6.19446 36.7202 6.37373C36.7912 6.46337 36.88 6.553 36.951 6.66057L37.022 6.7502L37.0575 6.78606L37.1285 6.87569C37.7498 7.68241 38.3001 8.56084 38.7439 9.49305C38.9569 9.95915 39.1344 10.4432 39.2764 10.9272C39.4184 11.4292 39.5427 11.9311 39.6137 12.451C39.6492 12.702 39.667 12.8275 39.7025 13.0964C39.738 13.3653 39.7557 13.688 39.7557 13.9748C39.7912 14.5126 39.7735 15.0325 39.738 15.5524Z" fill="#025652"/>
<path d="M26.0694 9.99502C24.0813 10.0667 23.0872 11.8599 22.7677 12.5054C22.6967 12.6489 22.75 12.8282 22.892 12.8999C23.0162 12.9537 23.1582 12.9358 23.247 12.8282C23.6553 12.3799 24.7381 11.3578 26.1227 11.304C27.1345 11.2682 28.1641 11.7702 29.1582 12.7923C29.3002 12.9537 29.5487 12.9537 29.6907 12.8103C29.8505 12.6668 29.8505 12.4158 29.7084 12.2723C28.4836 10.9095 27.4895 9.94123 26.0694 9.99502Z" fill="#025652"/>
<path d="M20.0873 24.2112C19.2352 23.0997 18.5074 21.8807 17.9394 20.5899C17.7618 20.1776 17.5843 19.6936 17.8151 19.2992C17.9571 19.0482 18.2234 18.9048 18.5074 18.8868C18.7914 18.8689 19.0754 18.9585 19.2885 19.1378C19.608 19.3709 19.8565 19.7115 20.247 19.7473C20.5666 19.7832 20.8506 19.5501 21.0813 19.335C21.3121 19.1199 21.5429 18.851 21.8446 18.7793C22.2884 18.6896 22.75 18.9227 22.9452 19.335C23.1227 19.7473 23.1405 20.2134 22.9807 20.6437C22.821 21.056 22.5902 21.4504 22.3239 21.8089L20.6198 24.2829" fill="#025652"/>
</svg>
