<svg width="151" height="23" viewBox="0 0 151 23" fill="none" xmlns="http://www.w3.org/2000/svg">
<path d="M7.328 18.24C5.904 18.24 4.68 18.008 3.656 17.544C2.632 17.064 1.832 16.336 1.256 15.36C0.68 14.368 0.368 13.136 0.32 11.664C0.304 10.976 0.296 10.296 0.296 9.624C0.296 8.952 0.304 8.264 0.32 7.56C0.368 6.104 0.688 4.888 1.28 3.912C1.872 2.936 2.68 2.2 3.704 1.704C4.744 1.208 5.952 0.959999 7.328 0.959999C8.704 0.959999 9.912 1.208 10.952 1.704C11.992 2.2 12.808 2.936 13.4 3.912C13.992 4.888 14.312 6.104 14.36 7.56C14.392 8.264 14.408 8.952 14.408 9.624C14.408 10.296 14.392 10.976 14.36 11.664C14.312 13.136 14 14.368 13.424 15.36C12.848 16.336 12.04 17.064 11 17.544C9.976 18.008 8.752 18.24 7.328 18.24ZM7.328 15.48C8.368 15.48 9.216 15.176 9.872 14.568C10.528 13.944 10.88 12.936 10.928 11.544C10.96 10.84 10.976 10.192 10.976 9.6C10.976 8.992 10.96 8.344 10.928 7.656C10.896 6.728 10.72 5.976 10.4 5.4C10.096 4.808 9.68 4.384 9.152 4.128C8.624 3.856 8.016 3.72 7.328 3.72C6.656 3.72 6.056 3.856 5.528 4.128C5 4.384 4.576 4.808 4.256 5.4C3.952 5.976 3.784 6.728 3.752 7.656C3.736 8.344 3.728 8.992 3.728 9.6C3.728 10.192 3.736 10.84 3.752 11.544C3.8 12.936 4.152 13.944 4.808 14.568C5.464 15.176 6.304 15.48 7.328 15.48ZM21.9035 18.24C20.9275 18.24 20.0795 18.024 19.3595 17.592C18.6555 17.144 18.1115 16.52 17.7275 15.72C17.3435 14.904 17.1515 13.944 17.1515 12.84V6.096C17.1515 5.936 17.2075 5.8 17.3195 5.688C17.4315 5.576 17.5675 5.52 17.7275 5.52H19.8395C20.0155 5.52 20.1515 5.576 20.2475 5.688C20.3595 5.8 20.4155 5.936 20.4155 6.096V12.696C20.4155 14.68 21.2875 15.672 23.0315 15.672C23.8635 15.672 24.5195 15.408 24.9995 14.88C25.4955 14.352 25.7435 13.624 25.7435 12.696V6.096C25.7435 5.936 25.7995 5.8 25.9115 5.688C26.0235 5.576 26.1595 5.52 26.3195 5.52H28.4315C28.5915 5.52 28.7275 5.576 28.8395 5.688C28.9515 5.8 29.0075 5.936 29.0075 6.096V17.424C29.0075 17.584 28.9515 17.72 28.8395 17.832C28.7275 17.944 28.5915 18 28.4315 18H26.4875C26.3115 18 26.1675 17.944 26.0555 17.832C25.9595 17.72 25.9115 17.584 25.9115 17.424V16.44C25.4795 17 24.9435 17.44 24.3035 17.76C23.6635 18.08 22.8635 18.24 21.9035 18.24ZM32.7538 18C32.5938 18 32.4578 17.944 32.3458 17.832C32.2338 17.72 32.1777 17.584 32.1777 17.424V6.12C32.1777 5.944 32.2338 5.8 32.3458 5.688C32.4578 5.576 32.5938 5.52 32.7538 5.52H34.6978C34.8578 5.52 34.9938 5.576 35.1058 5.688C35.2338 5.8 35.2978 5.944 35.2978 6.12V7.104C35.6658 6.592 36.1378 6.2 36.7138 5.928C37.3058 5.656 37.9858 5.52 38.7538 5.52H39.7378C39.9138 5.52 40.0498 5.576 40.1458 5.688C40.2578 5.8 40.3138 5.936 40.3138 6.096V7.824C40.3138 7.984 40.2578 8.12 40.1458 8.232C40.0498 8.344 39.9138 8.4 39.7378 8.4H37.8658C37.0978 8.4 36.4978 8.616 36.0658 9.048C35.6498 9.464 35.4418 10.056 35.4418 10.824V17.424C35.4418 17.584 35.3858 17.72 35.2738 17.832C35.1618 17.944 35.0178 18 34.8418 18H32.7538ZM47.7543 22.56C47.5943 22.56 47.4583 22.504 47.3463 22.392C47.2343 22.28 47.1783 22.144 47.1783 21.984V6.096C47.1783 5.936 47.2343 5.8 47.3463 5.688C47.4583 5.576 47.5943 5.52 47.7543 5.52H49.6503C49.8263 5.52 49.9623 5.576 50.0583 5.688C50.1703 5.8 50.2263 5.936 50.2263 6.096V7.056C50.6103 6.544 51.1143 6.12 51.7383 5.784C52.3623 5.448 53.1383 5.28 54.0663 5.28C54.9143 5.28 55.6503 5.416 56.2743 5.688C56.8983 5.96 57.4183 6.352 57.8343 6.864C58.2503 7.36 58.5703 7.952 58.7943 8.64C59.0183 9.328 59.1463 10.088 59.1783 10.92C59.1943 11.192 59.2023 11.472 59.2023 11.76C59.2023 12.048 59.1943 12.336 59.1783 12.624C59.1623 13.424 59.0423 14.168 58.8183 14.856C58.5943 15.528 58.2663 16.12 57.8343 16.632C57.4183 17.128 56.8983 17.52 56.2743 17.808C55.6503 18.096 54.9143 18.24 54.0663 18.24C53.2023 18.24 52.4663 18.088 51.8583 17.784C51.2503 17.464 50.7543 17.048 50.3703 16.536V21.984C50.3703 22.144 50.3143 22.28 50.2023 22.392C50.1063 22.504 49.9703 22.56 49.7943 22.56H47.7543ZM53.1783 15.672C53.8663 15.672 54.4023 15.528 54.7863 15.24C55.1703 14.936 55.4503 14.544 55.6263 14.064C55.8023 13.584 55.9063 13.056 55.9383 12.48C55.9543 12 55.9543 11.52 55.9383 11.04C55.9063 10.464 55.8023 9.936 55.6263 9.456C55.4503 8.976 55.1703 8.592 54.7863 8.304C54.4023 8 53.8663 7.848 53.1783 7.848C52.5223 7.848 51.9863 8 51.5703 8.304C51.1703 8.608 50.8743 9 50.6823 9.48C50.5063 9.944 50.4023 10.424 50.3703 10.92C50.3543 11.208 50.3463 11.512 50.3463 11.832C50.3463 12.152 50.3543 12.464 50.3703 12.768C50.3863 13.248 50.4983 13.712 50.7063 14.16C50.9143 14.592 51.2183 14.952 51.6183 15.24C52.0183 15.528 52.5383 15.672 53.1783 15.672ZM65.5205 18.24C64.6885 18.24 63.9365 18.08 63.2645 17.76C62.5925 17.424 62.0565 16.984 61.6565 16.44C61.2725 15.88 61.0805 15.256 61.0805 14.568C61.0805 13.448 61.5365 12.56 62.4485 11.904C63.3605 11.232 64.5525 10.784 66.0245 10.56L69.3125 10.08V9.576C69.3125 8.904 69.1445 8.384 68.8085 8.016C68.4725 7.648 67.8965 7.464 67.0805 7.464C66.5045 7.464 66.0325 7.584 65.6645 7.824C65.3125 8.048 65.0485 8.352 64.8725 8.736C64.7445 8.944 64.5605 9.048 64.3205 9.048H62.4245C62.2485 9.048 62.1125 9 62.0165 8.904C61.9365 8.808 61.8965 8.68 61.8965 8.52C61.9125 8.264 62.0165 7.952 62.2085 7.584C62.4165 7.216 62.7205 6.864 63.1205 6.528C63.5365 6.176 64.0725 5.88 64.7285 5.64C65.3845 5.4 66.1765 5.28 67.1045 5.28C68.1125 5.28 68.9605 5.408 69.6485 5.664C70.3525 5.904 70.9125 6.232 71.3285 6.648C71.7445 7.064 72.0485 7.552 72.2405 8.112C72.4325 8.672 72.5285 9.264 72.5285 9.888V17.424C72.5285 17.584 72.4725 17.72 72.3605 17.832C72.2485 17.944 72.1125 18 71.9525 18H70.0085C69.8325 18 69.6885 17.944 69.5765 17.832C69.4805 17.72 69.4325 17.584 69.4325 17.424V16.488C69.2245 16.776 68.9445 17.056 68.5925 17.328C68.2405 17.6 67.8085 17.824 67.2965 18C66.8005 18.16 66.2085 18.24 65.5205 18.24ZM66.3365 15.96C66.8965 15.96 67.4005 15.84 67.8485 15.6C68.3125 15.36 68.6725 14.992 68.9285 14.496C69.2005 13.984 69.3365 13.344 69.3365 12.576V12.072L66.9365 12.456C65.9925 12.6 65.2885 12.832 64.8245 13.152C64.3605 13.472 64.1285 13.864 64.1285 14.328C64.1285 14.68 64.2325 14.984 64.4405 15.24C64.6645 15.48 64.9445 15.664 65.2805 15.792C65.6165 15.904 65.9685 15.96 66.3365 15.96ZM76.1834 18C76.0234 18 75.8874 17.944 75.7754 17.832C75.6634 17.72 75.6074 17.584 75.6074 17.424V6.12C75.6074 5.944 75.6634 5.8 75.7754 5.688C75.8874 5.576 76.0234 5.52 76.1834 5.52H78.1274C78.2874 5.52 78.4234 5.576 78.5354 5.688C78.6634 5.8 78.7274 5.944 78.7274 6.12V7.104C79.0954 6.592 79.5674 6.2 80.1434 5.928C80.7354 5.656 81.4154 5.52 82.1834 5.52H83.1674C83.3434 5.52 83.4794 5.576 83.5754 5.688C83.6874 5.8 83.7434 5.936 83.7434 6.096V7.824C83.7434 7.984 83.6874 8.12 83.5754 8.232C83.4794 8.344 83.3434 8.4 83.1674 8.4H81.2954C80.5274 8.4 79.9274 8.616 79.4954 9.048C79.0794 9.464 78.8714 10.056 78.8714 10.824V17.424C78.8714 17.584 78.8154 17.72 78.7034 17.832C78.5914 17.944 78.4474 18 78.2714 18H76.1834ZM91.2553 18C90.2953 18 89.4873 17.832 88.8313 17.496C88.1753 17.16 87.6873 16.664 87.3673 16.008C87.0473 15.336 86.8873 14.504 86.8873 13.512V8.064H84.9913C84.8313 8.064 84.6953 8.008 84.5833 7.896C84.4713 7.784 84.4153 7.64 84.4153 7.464V6.096C84.4153 5.936 84.4713 5.8 84.5833 5.688C84.6953 5.576 84.8313 5.52 84.9913 5.52H86.8873V1.536C86.8873 1.376 86.9353 1.24 87.0312 1.128C87.1432 1.016 87.2873 0.959999 87.4633 0.959999H89.4073C89.5673 0.959999 89.7033 1.016 89.8153 1.128C89.9273 1.24 89.9833 1.376 89.9833 1.536V5.52H92.9833C93.1433 5.52 93.2793 5.576 93.3913 5.688C93.5033 5.8 93.5593 5.936 93.5593 6.096V7.464C93.5593 7.64 93.5033 7.784 93.3913 7.896C93.2793 8.008 93.1433 8.064 92.9833 8.064H89.9833V13.272C89.9833 13.928 90.0953 14.44 90.3193 14.808C90.5593 15.176 90.9673 15.36 91.5433 15.36H93.1993C93.3593 15.36 93.4953 15.416 93.6073 15.528C93.7193 15.64 93.7753 15.776 93.7753 15.936V17.424C93.7753 17.584 93.7193 17.72 93.6073 17.832C93.4953 17.944 93.3593 18 93.1993 18H91.2553ZM96.4803 18C96.3203 18 96.1843 17.944 96.0723 17.832C95.9603 17.72 95.9043 17.584 95.9043 17.424V6.096C95.9043 5.936 95.9603 5.8 96.0723 5.688C96.1843 5.576 96.3203 5.52 96.4803 5.52H98.4483C98.6083 5.52 98.7443 5.576 98.8563 5.688C98.9683 5.8 99.0243 5.936 99.0243 6.096V7.08C99.4403 6.568 99.9683 6.144 100.608 5.808C101.264 5.456 102.072 5.28 103.032 5.28C104.008 5.28 104.856 5.504 105.576 5.952C106.296 6.384 106.848 7 107.232 7.8C107.632 8.6 107.832 9.56 107.832 10.68V17.424C107.832 17.584 107.776 17.72 107.664 17.832C107.552 17.944 107.416 18 107.256 18H105.144C104.984 18 104.848 17.944 104.736 17.832C104.624 17.72 104.568 17.584 104.568 17.424V10.824C104.568 9.896 104.336 9.168 103.872 8.64C103.424 8.112 102.768 7.848 101.904 7.848C101.072 7.848 100.408 8.112 99.9123 8.64C99.4163 9.168 99.1683 9.896 99.1683 10.824V17.424C99.1683 17.584 99.1123 17.72 99.0003 17.832C98.8883 17.944 98.7523 18 98.5923 18H96.4803ZM116.257 18.24C114.481 18.24 113.073 17.728 112.033 16.704C110.993 15.68 110.433 14.224 110.353 12.336C110.337 12.176 110.329 11.976 110.329 11.736C110.329 11.48 110.337 11.28 110.353 11.136C110.417 9.92 110.689 8.88 111.169 8.016C111.665 7.136 112.345 6.464 113.209 6C114.073 5.52 115.089 5.28 116.257 5.28C117.553 5.28 118.641 5.552 119.521 6.096C120.401 6.624 121.065 7.368 121.513 8.328C121.961 9.272 122.185 10.368 122.185 11.616V12.12C122.185 12.28 122.129 12.416 122.017 12.528C121.905 12.64 121.761 12.696 121.585 12.696H113.617C113.617 12.696 113.617 12.72 113.617 12.768C113.617 12.816 113.617 12.856 113.617 12.888C113.633 13.448 113.737 13.968 113.929 14.448C114.137 14.912 114.433 15.288 114.817 15.576C115.217 15.864 115.689 16.008 116.233 16.008C116.681 16.008 117.057 15.944 117.361 15.816C117.665 15.672 117.913 15.512 118.105 15.336C118.297 15.16 118.433 15.016 118.513 14.904C118.657 14.712 118.769 14.6 118.849 14.568C118.945 14.52 119.081 14.496 119.257 14.496H121.321C121.481 14.496 121.609 14.544 121.705 14.64C121.817 14.736 121.865 14.856 121.849 15C121.833 15.256 121.697 15.568 121.441 15.936C121.201 16.304 120.849 16.664 120.385 17.016C119.921 17.368 119.337 17.664 118.633 17.904C117.945 18.128 117.153 18.24 116.257 18.24ZM113.617 10.68H118.921V10.608C118.921 9.984 118.817 9.44 118.609 8.976C118.401 8.496 118.097 8.128 117.697 7.872C117.297 7.6 116.817 7.464 116.257 7.464C115.697 7.464 115.217 7.6 114.817 7.872C114.417 8.128 114.113 8.496 113.905 8.976C113.713 9.44 113.617 9.984 113.617 10.608V10.68ZM125.308 18C125.148 18 125.012 17.944 124.9 17.832C124.788 17.72 124.732 17.584 124.732 17.424V6.12C124.732 5.944 124.788 5.8 124.9 5.688C125.012 5.576 125.148 5.52 125.308 5.52H127.252C127.412 5.52 127.548 5.576 127.66 5.688C127.788 5.8 127.852 5.944 127.852 6.12V7.104C128.22 6.592 128.692 6.2 129.268 5.928C129.86 5.656 130.54 5.52 131.308 5.52H132.292C132.468 5.52 132.604 5.576 132.7 5.688C132.812 5.8 132.868 5.936 132.868 6.096V7.824C132.868 7.984 132.812 8.12 132.7 8.232C132.604 8.344 132.468 8.4 132.292 8.4H130.42C129.652 8.4 129.052 8.616 128.62 9.048C128.204 9.464 127.996 10.056 127.996 10.824V17.424C127.996 17.584 127.94 17.72 127.828 17.832C127.716 17.944 127.572 18 127.396 18H125.308ZM139.468 18.24C138.508 18.24 137.684 18.128 136.996 17.904C136.324 17.68 135.772 17.4 135.34 17.064C134.908 16.728 134.588 16.392 134.38 16.056C134.172 15.72 134.06 15.44 134.044 15.216C134.028 15.04 134.076 14.904 134.188 14.808C134.316 14.696 134.452 14.64 134.596 14.64H136.492C136.556 14.64 136.612 14.648 136.66 14.664C136.708 14.68 136.772 14.728 136.852 14.808C137.06 14.984 137.276 15.168 137.5 15.36C137.74 15.552 138.02 15.72 138.34 15.864C138.66 15.992 139.06 16.056 139.54 16.056C140.164 16.056 140.684 15.936 141.1 15.696C141.532 15.44 141.748 15.08 141.748 14.616C141.748 14.28 141.652 14.008 141.46 13.8C141.284 13.592 140.948 13.408 140.452 13.248C139.956 13.072 139.252 12.888 138.34 12.696C137.444 12.488 136.7 12.224 136.108 11.904C135.516 11.584 135.076 11.184 134.788 10.704C134.5 10.224 134.356 9.664 134.356 9.024C134.356 8.4 134.54 7.808 134.908 7.248C135.292 6.672 135.852 6.2 136.588 5.832C137.34 5.464 138.268 5.28 139.372 5.28C140.236 5.28 140.988 5.392 141.628 5.616C142.268 5.824 142.796 6.088 143.212 6.408C143.644 6.728 143.972 7.056 144.196 7.392C144.42 7.712 144.54 7.992 144.556 8.232C144.572 8.408 144.524 8.552 144.412 8.664C144.3 8.76 144.172 8.808 144.028 8.808H142.252C142.172 8.808 142.1 8.792 142.036 8.76C141.972 8.728 141.908 8.688 141.844 8.64C141.668 8.48 141.476 8.312 141.268 8.136C141.06 7.944 140.804 7.784 140.5 7.656C140.212 7.528 139.828 7.464 139.348 7.464C138.74 7.464 138.276 7.6 137.956 7.872C137.636 8.128 137.476 8.456 137.476 8.856C137.476 9.128 137.548 9.368 137.692 9.576C137.852 9.768 138.164 9.952 138.628 10.128C139.092 10.304 139.796 10.488 140.74 10.68C141.812 10.872 142.66 11.16 143.284 11.544C143.924 11.912 144.372 12.344 144.628 12.84C144.9 13.32 145.036 13.856 145.036 14.448C145.036 15.168 144.82 15.816 144.388 16.392C143.972 16.968 143.348 17.424 142.516 17.76C141.7 18.08 140.684 18.24 139.468 18.24ZM148.018 9.6C147.858 9.6 147.722 9.544 147.61 9.432C147.498 9.32 147.442 9.184 147.442 9.024V6.744C147.442 6.568 147.498 6.424 147.61 6.312C147.722 6.2 147.858 6.144 148.018 6.144H150.394C150.57 6.144 150.714 6.2 150.826 6.312C150.938 6.424 150.994 6.568 150.994 6.744V9.024C150.994 9.184 150.938 9.32 150.826 9.432C150.714 9.544 150.57 9.6 150.394 9.6H148.018ZM148.018 18C147.858 18 147.722 17.944 147.61 17.832C147.498 17.72 147.442 17.584 147.442 17.424V15.144C147.442 14.968 147.498 14.824 147.61 14.712C147.722 14.6 147.858 14.544 148.018 14.544H150.394C150.57 14.544 150.714 14.6 150.826 14.712C150.938 14.824 150.994 14.968 150.994 15.144V17.424C150.994 17.584 150.938 17.72 150.826 17.832C150.714 17.944 150.57 18 150.394 18H148.018Z" fill="#1A2424"/>
</svg>
