<svg width="100" height="100" viewBox="0 0 100 100" fill="none" xmlns="http://www.w3.org/2000/svg">
<g filter="url(#filter0_d_165_4)">
<circle cx="50" cy="45" r="30" fill="#F7FFFF"/>
</g>
<g clip-path="url(#clip0_165_4)">
<path d="M53.5456 39.5246C52.5582 39.5246 51.6157 40.0856 51.122 40.9607C51.0323 41.1403 51.0098 41.3198 51.0547 41.5217C51.0996 41.7237 51.2342 41.8584 51.3913 41.9481C51.7503 42.1501 52.1767 42.0154 52.3787 41.6788C52.6255 41.2525 53.0519 40.9832 53.5231 40.9832C53.9944 40.9832 54.4432 41.2525 54.6676 41.6788C54.8022 41.9032 55.0491 42.0603 55.2959 42.0603C55.4081 42.0603 55.5428 42.0379 55.655 41.9706C55.8345 41.8808 55.9467 41.7237 55.9916 41.5442C56.0365 41.3647 56.014 41.1627 55.9243 40.9832C55.4755 40.0856 54.5554 39.5246 53.5456 39.5246Z" fill="#1A2424"/>
<path d="M45.7139 39.5246C44.7265 39.5246 43.784 40.0856 43.2903 40.9607C43.2006 41.1403 43.1781 41.3198 43.223 41.5217C43.2679 41.7237 43.4025 41.8584 43.5596 41.9481C43.9186 42.1501 44.345 42.0154 44.547 41.6788C44.7938 41.2525 45.2202 40.9832 45.6914 40.9832C46.1627 40.9832 46.6115 41.2525 46.8359 41.6788C46.9705 41.9032 47.2174 42.0603 47.4642 42.0603C47.5764 42.0603 47.7111 42.0379 47.8233 41.9706C48.0028 41.8808 48.115 41.7237 48.1599 41.5442C48.2048 41.3647 48.1823 41.1627 48.0926 40.9832C47.6438 40.0856 46.7013 39.5246 45.7139 39.5246Z" fill="#1A2424"/>
<path d="M63.7111 34.0715C63.4193 33.7349 63.1276 33.3983 62.8583 33.0617C61.6914 31.6704 60.6592 30.4586 59.5147 29.7181C58.1234 28.8429 56.6648 28.7756 55.094 29.4937C55.0042 29.5386 54.8471 29.6059 54.2637 30.0098C52.9172 29.3366 51.4137 29 49.6409 29C47.8682 29 46.3647 29.3366 45.0182 30.0098C44.4348 29.6283 44.3001 29.5386 44.1879 29.4937C42.5947 28.7532 41.1585 28.8429 39.7672 29.7181C38.6003 30.4586 37.5905 31.6704 36.4236 33.0617C36.1543 33.3983 35.8625 33.7349 35.5708 34.0715C34.2468 35.6199 33.7532 37.4376 34.1346 39.3226C34.5161 41.2749 35.8625 43.1599 37.6129 44.2819C37.5007 45.0449 37.2987 46.6157 37.3661 48.4109C36.7826 49.5778 36.5582 50.9467 36.7602 52.2931C36.9621 53.6844 37.6129 54.986 38.6003 55.9509C39.7896 57.1403 41.4053 57.791 43.2454 57.8808C44.0533 57.9032 44.906 57.8359 45.7812 57.6564C46.0505 59.5638 47.7111 61 49.6634 61C51.6157 61 53.2539 59.5638 53.5456 57.6564C54.4208 57.8359 55.2735 57.9257 56.0813 57.8808C57.9439 57.8135 59.5372 57.1403 60.7265 55.9509C61.6914 54.986 62.3422 53.6844 62.5666 52.2931C62.7686 50.9467 62.5442 49.5778 61.9607 48.4109C62.0056 47.0645 61.9158 45.561 61.7139 44.2595C63.4867 43.1374 64.8107 41.2749 65.1921 39.3001C65.5287 37.4376 65.0126 35.6199 63.7111 34.0715ZM48.7209 56.669V57.2749C48.7209 57.7686 49.1248 58.1725 49.6185 58.1725C50.1122 58.1725 50.5161 57.7686 50.5161 57.2749V56.6914C50.9201 56.871 51.324 57.028 51.7055 57.1851C51.6606 58.3072 50.7405 59.2272 49.5961 59.2272C48.4516 59.2272 47.5316 58.3072 47.4867 57.1851C47.913 57.0056 48.317 56.8485 48.7209 56.669ZM49.8878 54.3352H49.8654C49.8429 54.3352 49.8205 54.3352 49.8205 54.3128C49.798 54.3128 49.7756 54.3128 49.7532 54.3128H49.7307C49.6634 54.3128 49.6185 54.3128 49.5512 54.3128H49.5287C49.5063 54.3128 49.4839 54.3128 49.4614 54.3128L49.3717 54.3352C49.3492 54.3352 49.3268 54.3576 49.3043 54.3576H49.2819C49.2595 54.3801 49.2146 54.3801 49.1921 54.4025C45.2202 56.5344 41.8317 56.6466 39.8345 54.6718C38.3983 53.2581 38.0393 50.9467 38.9818 49.1739C39.9691 47.2889 42.1907 46.4586 45.0407 46.8626C45.1753 47.1992 45.3773 47.4909 45.6241 47.7377L48.0028 50.1837C48.4292 50.6101 48.9902 50.8569 49.5961 50.8569C50.202 50.8569 50.763 50.6101 51.1893 50.1837L53.6578 47.6704C53.8822 47.446 54.0393 47.1992 54.1515 46.9074C57.0238 46.5035 59.223 47.3338 60.2328 49.2188C61.1753 50.9916 60.8163 53.3029 59.3801 54.7167C57.4278 56.669 54.0617 56.5792 50.1346 54.4923L50.0673 54.4474C50.0449 54.4474 50.0449 54.425 50.0449 54.425C50.0224 54.425 50.0224 54.4025 50 54.4025C49.9776 54.4025 49.9776 54.3801 49.9551 54.3801H49.9327C49.9327 54.3576 49.9102 54.3352 49.8878 54.3352ZM35.9074 38.9635C35.6381 37.6396 35.9972 36.338 36.9397 35.2384C37.2314 34.8794 37.5231 34.5428 37.8149 34.2062C40.3282 31.2216 41.4053 30.2342 43.3576 31.1094C40.8892 33.1739 39.1837 36.7419 37.9944 42.3296C36.9397 41.4544 36.1543 40.1978 35.9074 38.9635ZM52.4011 46.3913L49.9327 48.9046C49.7532 49.0842 49.4839 49.0842 49.3268 48.9046L46.9257 46.4586C46.9032 46.4362 46.9032 46.4362 46.8808 46.4137C46.791 46.324 46.7237 46.2118 46.7237 46.0771C46.7237 45.8303 46.9257 45.6508 47.1501 45.6508H52.087C52.1992 45.6508 52.3114 45.6957 52.3787 45.763C52.5806 45.9425 52.5806 46.2118 52.4011 46.3913ZM59.784 44.0351C59.8962 44.6858 60.0084 45.4712 60.0533 46.2567C59.6494 45.9649 59.1781 45.7181 58.7069 45.5161C57.7868 45.1346 56.7546 44.9551 55.6101 44.9551C55.1164 44.9551 54.6227 45 54.1066 45.0673C53.9944 44.8429 53.8597 44.6634 53.6802 44.4839C53.2539 44.0799 52.6928 43.8331 52.1094 43.8331H47.1725C46.3422 43.8331 45.5568 44.3043 45.1753 45.0449C43.4474 44.8205 41.899 44.9776 40.575 45.4937C40.0813 45.6957 39.6325 45.9425 39.2286 46.2342C39.2735 45.4488 39.3857 44.6634 39.4979 44.0126L39.5203 43.9229C40.4853 38.8962 41.8317 35.4404 43.6269 33.3534C45.1529 31.6031 47.0603 30.7728 49.6409 30.7728C52.2216 30.7728 54.129 31.6031 55.655 33.3534C57.4726 35.4404 58.7966 38.8962 59.7616 43.9229L59.784 44.0351ZM61.2875 42.3296C60.0982 36.7644 58.3703 33.1739 55.9243 31.1094C57.899 30.2342 58.9537 31.2216 61.467 34.2286C61.7363 34.5652 62.028 34.9018 62.3422 35.2609C63.2847 36.3604 63.6438 37.6396 63.3745 38.986C63.1276 40.1978 62.3422 41.4544 61.2875 42.3296Z" fill="#1A2424"/>
<path d="M42.7069 50.1837C43.1035 50.1837 43.425 49.8622 43.425 49.4656C43.425 49.069 43.1035 48.7475 42.7069 48.7475C42.3103 48.7475 41.9888 49.069 41.9888 49.4656C41.9888 49.8622 42.3103 50.1837 42.7069 50.1837Z" fill="#1A2424"/>
<path d="M41.4278 53.5722C41.8244 53.5722 42.1459 53.2507 42.1459 52.8541C42.1459 52.4575 41.8244 52.136 41.4278 52.136C41.0312 52.136 40.7097 52.4575 40.7097 52.8541C40.7097 53.2507 41.0312 53.5722 41.4278 53.5722Z" fill="#1A2424"/>
<path d="M45.0855 52.6971C45.4821 52.6971 45.8036 52.3755 45.8036 51.979C45.8036 51.5824 45.4821 51.2609 45.0855 51.2609C44.689 51.2609 44.3675 51.5824 44.3675 51.979C44.3675 52.3755 44.689 52.6971 45.0855 52.6971Z" fill="#1A2424"/>
<path d="M56.5526 50.2062C56.9565 50.2062 57.2707 49.8696 57.2707 49.4881C57.2707 49.1066 56.9341 48.77 56.5526 48.77C56.1487 48.77 55.8345 49.1066 55.8345 49.4881C55.8345 49.8696 56.1487 50.2062 56.5526 50.2062Z" fill="#1A2424"/>
<path d="M57.8317 53.5722C58.2283 53.5722 58.5498 53.2507 58.5498 52.8541C58.5498 52.4575 58.2283 52.136 57.8317 52.136C57.4351 52.136 57.1136 52.4575 57.1136 52.8541C57.1136 53.2507 57.4351 53.5722 57.8317 53.5722Z" fill="#1A2424"/>
<path d="M54.1963 52.6971C54.5929 52.6971 54.9144 52.3755 54.9144 51.979C54.9144 51.5824 54.5929 51.2609 54.1963 51.2609C53.7998 51.2609 53.4783 51.5824 53.4783 51.979C53.4783 52.3755 53.7998 52.6971 54.1963 52.6971Z" fill="#1A2424"/>
<path d="M43.582 36.8317C43.7391 36.5175 43.6269 36.1585 43.3128 36.0014C43.021 35.8443 42.6396 35.9565 42.4825 36.2707C42.4825 36.2707 42.4825 36.2707 42.4825 36.2931C42.3254 36.5849 42.46 36.9663 42.7518 37.1234C42.8415 37.1683 42.9313 37.1907 43.021 37.1907C43.2454 37.1907 43.4698 37.0561 43.582 36.8317Z" fill="#1A2424"/>
<path d="M43.5596 35.575C43.6718 35.6424 43.784 35.6872 43.8962 35.6872C44.0982 35.6872 44.2777 35.5975 44.4123 35.418C45.108 34.4306 46.3871 33.2412 47.352 33.0168C47.6886 32.9271 47.8906 32.6129 47.8008 32.2763C47.7111 31.9397 47.3969 31.7377 47.0603 31.8275C45.6017 32.1865 44.0533 33.7574 43.4025 34.7223C43.2006 34.9916 43.2679 35.3731 43.5596 35.575Z" fill="#1A2424"/>
</g>
<defs>
<filter id="filter0_d_165_4" x="0" y="0" width="100" height="100" filterUnits="userSpaceOnUse" color-interpolation-filters="sRGB">
<feFlood flood-opacity="0" result="BackgroundImageFix"/>
<feColorMatrix in="SourceAlpha" type="matrix" values="0 0 0 0 0 0 0 0 0 0 0 0 0 0 0 0 0 0 127 0" result="hardAlpha"/>
<feOffset dy="5"/>
<feGaussianBlur stdDeviation="10"/>
<feColorMatrix type="matrix" values="0 0 0 0 0 0 0 0 0 0 0 0 0 0 0 0 0 0 0.05 0"/>
<feBlend mode="normal" in2="BackgroundImageFix" result="effect1_dropShadow_165_4"/>
<feBlend mode="normal" in="SourceGraphic" in2="effect1_dropShadow_165_4" result="shape"/>
</filter>
<clipPath id="clip0_165_4">
<rect width="31.2595" height="32" fill="white" transform="translate(34 29)"/>
</clipPath>
</defs>
</svg>
