<svg width="80" height="80" viewBox="0 0 80 80" fill="none" xmlns="http://www.w3.org/2000/svg">
<g filter="url(#filter0_d_227_19)">
<rect x="20" y="15" width="40" height="40" rx="10" fill="white"/>
<path d="M42.6797 35.8984C42.8906 35.6875 42.8906 35.3359 42.6797 35.125L38.1328 30.5547C37.8984 30.3438 37.5469 30.3438 37.3359 30.5547L36.7969 31.0938C36.5859 31.3047 36.5859 31.6562 36.7969 31.8906L40.4062 35.5L36.7969 39.1328C36.5859 39.3672 36.5859 39.7188 36.7969 39.9297L37.3359 40.4688C37.5469 40.6797 37.8984 40.6797 38.1328 40.4688L42.6797 35.8984Z" fill="#025652"/>
</g>
<defs>
<filter id="filter0_d_227_19" x="0" y="0" width="80" height="80" filterUnits="userSpaceOnUse" color-interpolation-filters="sRGB">
<feFlood flood-opacity="0" result="BackgroundImageFix"/>
<feColorMatrix in="SourceAlpha" type="matrix" values="0 0 0 0 0 0 0 0 0 0 0 0 0 0 0 0 0 0 127 0" result="hardAlpha"/>
<feOffset dy="5"/>
<feGaussianBlur stdDeviation="10"/>
<feColorMatrix type="matrix" values="0 0 0 0 0 0 0 0 0 0 0 0 0 0 0 0 0 0 0.05 0"/>
<feBlend mode="normal" in2="BackgroundImageFix" result="effect1_dropShadow_227_19"/>
<feBlend mode="normal" in="SourceGraphic" in2="effect1_dropShadow_227_19" result="shape"/>
</filter>
</defs>
</svg>
